Reading Data
…
New names:
Rows: 9471 Columns: 18
── Column specification
──────────────────────────────────────────────────────── Delimiter: "," chr
(2): Date, Time dbl (14): ...1, CO(GT), PT08.S1(CO), NMHC(GT), C6H6(GT),
PT08.S2(NMHC), NOx(... lgl (2): ...17, ...18
ℹ Use `spec()` to retrieve the full column specification for this data. ℹ
Specify the column types or set `show_col_types = FALSE` to quiet this message.
• `` -> `...1`
• `...16` -> `...17`
• `...17` -> `...18`

air_quality

# A tibble: 9,471 × 18
    ...1 Date       Time     `CO(GT)` `PT08.S1(CO)` `NMHC(GT)` `C6H6(GT)`
   <dbl> <chr>      <chr>       <dbl>         <dbl>      <dbl>      <dbl>
 1     1 10/03/2004 18.00.00      2.6          1360        150       11.9
 2     2 10/03/2004 19.00.00      2            1292        112        9.4
 3     3 10/03/2004 20.00.00      2.2          1402         88        9  
 4     4 10/03/2004 21.00.00      2.2          1376         80        9.2
 5     5 10/03/2004 22.00.00      1.6          1272         51        6.5
 6     6 10/03/2004 23.00.00      1.2          1197         38        4.7
 7     7 11/03/2004 00.00.00      1.2          1185         31        3.6
 8     8 11/03/2004 01.00.00      1            1136         31        3.3
 9     9 11/03/2004 02.00.00      0.9          1094         24        2.3
10    10 11/03/2004 03.00.00      0.6          1010         19        1.7
# ℹ 9,461 more rows
# ℹ 11 more variables: `PT08.S2(NMHC)` <dbl>, `NOx(GT)` <dbl>,
#   `PT08.S3(NOx)` <dbl>, `NO2(GT)` <dbl>, `PT08.S4(NO2)` <dbl>,
#   `PT08.S5(O3)` <dbl>, T <dbl>, RH <dbl>, AH <dbl>, ...17 <lgl>, ...18 <lgl>
…
Rows: 23 Columns: 5
── Column specification ────────────────────────────────────────────────────────

chr (1): brand
dbl (4): tar, nicotine, weight, co

ℹ Use `spec()` to retrieve the full column specification for this data.
ℹ Specify the column types or set `show_col_types = FALSE` to quiet this message.

cigarettes_data

# A tibble: 23 × 5
   brand          tar nicotine weight    co
   <chr>        <dbl>    <dbl>  <dbl> <dbl>
 1 Alpine        14.1     0.86  0.985  13.6
 2 Benson        16       1.06  1.09   16.6
 3 CamelLights    8       0.67  0.928  10.2
 4 Carlton        4.1     0.4   0.946   5.4
 5 Chesterfield  15       1.04  0.888  15  
 6 GoldenLights   8.8     0.76  1.03    9  
 7 Kent          12.4     0.95  0.922  12.3
 8 Kool          16.6     1.12  0.937  16.3
 9 L&M           14.9     1.02  0.886  15.4
10 LarkLights    13.7     1.01  0.964  13  
# ℹ 13 more rows
…
New names:
Rows: 9471 Columns: 18
── Column specification
──────────────────────────────────────────────────────── Delimiter: "," chr
(2): Date, Time dbl (14): ...1, CO(GT), PT08.S1(CO), NMHC(GT), C6H6(GT),
PT08.S2(NMHC), NOx(... lgl (2): ...17, ...18
ℹ Use `spec()` to retrieve the full column specification for this data. ℹ
Specify the column types or set `show_col_types = FALSE` to quiet this message.
• `` -> `...1`
• `...16` -> `...17`
• `...17` -> `...18`

air_quality

# A tibble: 9,471 × 18
    ...1 Date       Time     `CO(GT)` `PT08.S1(CO)` `NMHC(GT)` `C6H6(GT)`
   <dbl> <chr>      <chr>       <dbl>         <dbl>      <dbl>      <dbl>
 1     1 10/03/2004 18.00.00      2.6          1360        150       11.9
 2     2 10/03/2004 19.00.00      2            1292        112        9.4
 3     3 10/03/2004 20.00.00      2.2          1402         88        9  
 4     4 10/03/2004 21.00.00      2.2          1376         80        9.2
 5     5 10/03/2004 22.00.00      1.6          1272         51        6.5
 6     6 10/03/2004 23.00.00      1.2          1197         38        4.7
 7     7 11/03/2004 00.00.00      1.2          1185         31        3.6
 8     8 11/03/2004 01.00.00      1            1136         31        3.3
 9     9 11/03/2004 02.00.00      0.9          1094         24        2.3
10    10 11/03/2004 03.00.00      0.6          1010         19        1.7
# ℹ 9,461 more rows
# ℹ 11 more variables: `PT08.S2(NMHC)` <dbl>, `NOx(GT)` <dbl>,
#   `PT08.S3(NOx)` <dbl>, `NO2(GT)` <dbl>, `PT08.S4(NO2)` <dbl>,
#   `PT08.S5(O3)` <dbl>, T <dbl>, RH <dbl>, AH <dbl>, ...17 <lgl>, ...18 <lgl>
…
  rename("co_gt" = `CO(GT)`,
         "pt_08_sq_co" = `PT08.S1(CO)`,
         "nmhc_gt" = `NMHC(GT)`,
         "c6h6_gt" = `C6H6(GT)`,
         "pt_08_s2_nmhc" = `PT08.S2(NMHC)`,
         "nox_gt" = `NOx(GT)`,
         "pt_08_s3_nox" = `PT08.S3(NOx)`,
         "no2_gt" = `NO2(GT)`,      
         "pt_08_s4_no2" = `PT08.S4(NO2)`,
         "pt_08_s5_o3" = `PT08.S5(O3)`
         ) |>
  filter(co_gt == -200) |>
  mutate(mean_co_gt = mean(co_gt, na.rm = T))

# A tibble: 1,683 × 16
   Date       Time     co_gt pt_08_sq_co nmhc_gt c6h6_gt pt_08_s2_nmhc nox_gt
   <chr>      <chr>    <dbl>       <dbl>   <dbl>   <dbl>         <dbl>  <dbl>
 1 11/03/2004 04.00.00  -200        1011      14     1.3           527     21
 2 12/03/2004 04.00.00  -200         831      10     1.1           506     21
 3 12/03/2004 09.00.00  -200        1545    -200    22.1          1353   -200
 4 13/03/2004 04.00.00  -200        1147      56     6.2           821    109
 5 14/03/2004 04.00.00  -200        1130      56     5.2           773     70
 6 15/03/2004 04.00.00  -200        1078      44     4             711     66
 7 16/03/2004 04.00.00  -200         941      25     2.6           626     59
 8 17/03/2004 04.00.00  -200         883      17     1.9           577     54
 9 18/03/2004 04.00.00  -200         954      28     2.9           645     60
10 19/03/2004 04.00.00  -200         934    -200     1.8           569     20
# ℹ 1,673 more rows
# ℹ 8 more variables: pt_08_s3_nox <dbl>, no2_gt <dbl>, pt_08_s4_no2 <dbl>,
#   pt_08_s5_o3 <dbl>, T <dbl>, RH <dbl>, AH <dbl>, mean_co_gt <dbl>
…
  rename("co_gt" = `CO(GT)`,
         "pt_08_sq_co" = `PT08.S1(CO)`,
         "nmhc_gt" = `NMHC(GT)`,
         "c6h6_gt" = `C6H6(GT)`,
         "pt_08_s2_nmhc" = `PT08.S2(NMHC)`,
         "nox_gt" = `NOx(GT)`,
         "pt_08_s3_nox" = `PT08.S3(NOx)`,
         "no2_gt" = `NO2(GT)`,      
         "pt_08_s4_no2" = `PT08.S4(NO2)`,
         "pt_08_s5_o3" = `PT08.S5(O3)`
         ) |>
  filter(co_gt == -200) |>
  mutate(across(where(is.numeric), list(mean = mean, sd = sd), .names = "{.col}_{.fn}"))

# A tibble: 1,683 × 41
   Date       Time     co_gt pt_08_sq_co nmhc_gt c6h6_gt pt_08_s2_nmhc nox_gt
   <chr>      <chr>    <dbl>       <dbl>   <dbl>   <dbl>         <dbl>  <dbl>
 1 11/03/2004 04.00.00  -200        1011      14     1.3           527     21
 2 12/03/2004 04.00.00  -200         831      10     1.1           506     21
 3 12/03/2004 09.00.00  -200        1545    -200    22.1          1353   -200
 4 13/03/2004 04.00.00  -200        1147      56     6.2           821    109
 5 14/03/2004 04.00.00  -200        1130      56     5.2           773     70
 6 15/03/2004 04.00.00  -200        1078      44     4             711     66
 7 16/03/2004 04.00.00  -200         941      25     2.6           626     59
 8 17/03/2004 04.00.00  -200         883      17     1.9           577     54
 9 18/03/2004 04.00.00  -200         954      28     2.9           645     60
10 19/03/2004 04.00.00  -200         934    -200     1.8           569     20
# ℹ 1,673 more rows
# ℹ 33 more variables: pt_08_s3_nox <dbl>, no2_gt <dbl>, pt_08_s4_no2 <dbl>,
#   pt_08_s5_o3 <dbl>, T <dbl>, RH <dbl>, AH <dbl>, co_gt_mean <dbl>,
#   co_gt_sd <dbl>, pt_08_sq_co_mean <dbl>, pt_08_sq_co_sd <dbl>,
#   nmhc_gt_mean <dbl>, nmhc_gt_sd <dbl>, c6h6_gt_mean <dbl>, c6h6_gt_sd <dbl>,
#   pt_08_s2_nmhc_mean <dbl>, pt_08_s2_nmhc_sd <dbl>, nox_gt_mean <dbl>,
#   nox_gt_sd <dbl>, pt_08_s3_nox_mean <dbl>, pt_08_s3_nox_sd <dbl>, …
…
         "pt_08_sq_co" = `PT08.S1(CO)`,
         "nmhc_gt" = `NMHC(GT)`,
         "c6h6_gt" = `C6H6(GT)`,
         "pt_08_s2_nmhc" = `PT08.S2(NMHC)`,
         "nox_gt" = `NOx(GT)`,
         "pt_08_s3_nox" = `PT08.S3(NOx)`,
         "no2_gt" = `NO2(GT)`,      
         "pt_08_s4_no2" = `PT08.S4(NO2)`,
         "pt_08_s5_o3" = `PT08.S5(O3)`
         ) |>
  group_by(Date) |>
  filter(co_gt == -200) |>
  mutate(across(where(is.numeric), list(mean = mean, sd = sd), .names = "{.col}_{.fn}"))

# A tibble: 1,683 × 41
# Groups:   Date [233]
   Date       Time     co_gt pt_08_sq_co nmhc_gt c6h6_gt pt_08_s2_nmhc nox_gt
   <chr>      <chr>    <dbl>       <dbl>   <dbl>   <dbl>         <dbl>  <dbl>
 1 11/03/2004 04.00.00  -200        1011      14     1.3           527     21
 2 12/03/2004 04.00.00  -200         831      10     1.1           506     21
 3 12/03/2004 09.00.00  -200        1545    -200    22.1          1353   -200
 4 13/03/2004 04.00.00  -200        1147      56     6.2           821    109
 5 14/03/2004 04.00.00  -200        1130      56     5.2           773     70
 6 15/03/2004 04.00.00  -200        1078      44     4             711     66
 7 16/03/2004 04.00.00  -200         941      25     2.6           626     59
 8 17/03/2004 04.00.00  -200         883      17     1.9           577     54
 9 18/03/2004 04.00.00  -200         954      28     2.9           645     60
10 19/03/2004 04.00.00  -200         934    -200     1.8           569     20
# ℹ 1,673 more rows
# ℹ 33 more variables: pt_08_s3_nox <dbl>, no2_gt <dbl>, pt_08_s4_no2 <dbl>,
#   pt_08_s5_o3 <dbl>, T <dbl>, RH <dbl>, AH <dbl>, co_gt_mean <dbl>,
#   co_gt_sd <dbl>, pt_08_sq_co_mean <dbl>, pt_08_sq_co_sd <dbl>,
#   nmhc_gt_mean <dbl>, nmhc_gt_sd <dbl>, c6h6_gt_mean <dbl>, c6h6_gt_sd <dbl>,
#   pt_08_s2_nmhc_mean <dbl>, pt_08_s2_nmhc_sd <dbl>, nox_gt_mean <dbl>,
#   nox_gt_sd <dbl>, pt_08_s3_nox_mean <dbl>, pt_08_s3_nox_sd <dbl>, …
…
my_data <- tbl(con, "top_terms") |>
  select(refresh_date, term, rank, dma_id, dma_name) |>
  rename(
    "Day" = "refresh_date",
    "Top_Term" = "term"
  ) |>
  filter(rank == 1,
         Day > lubridate::as_date("2024-05-14"),
         dma_id == 500
  ) |>
  collect()
my_data

# A tibble: 8,380 × 5
   Day        Top_Term        rank dma_id dma_name          
   <date>     <chr>          <int>  <int> <chr>             
 1 2024-08-21 Michelle Obama     1    500 Portland-Auburn ME
 2 2024-08-21 Michelle Obama     1    500 Portland-Auburn ME
 3 2024-08-21 Michelle Obama     1    500 Portland-Auburn ME
 4 2024-08-21 Michelle Obama     1    500 Portland-Auburn ME
 5 2024-08-21 Michelle Obama     1    500 Portland-Auburn ME
 6 2024-08-21 Michelle Obama     1    500 Portland-Auburn ME
 7 2024-08-21 Michelle Obama     1    500 Portland-Auburn ME
 8 2024-08-21 Michelle Obama     1    500 Portland-Auburn ME
 9 2024-08-21 Michelle Obama     1    500 Portland-Auburn ME
10 2024-08-21 Michelle Obama     1    500 Portland-Auburn ME
# ℹ 8,370 more rows
